\relax 
\@writefile{toc}{\contentsline {section}{\numberline {1}Introduction}{2}}
\@writefile{toc}{\contentsline {section}{\numberline {2}Methods}{2}}
\@writefile{toc}{\contentsline {subsection}{\numberline {2.1}Reading in the Files and Normalising}{2}}
\newlabel{sec:norm}{{2.1}{2}}
\@writefile{toc}{\contentsline {subsection}{\numberline {2.2}Generating the Background Based on the Sequence}{2}}
\@writefile{toc}{\contentsline {subsection}{\numberline {2.3}Robot Detection}{3}}
\newlabel{sec:circleDect}{{2.3}{3}}
\@writefile{toc}{\contentsline {subsection}{\numberline {2.4}Detecting direction}{4}}
\@writefile{toc}{\contentsline {subsection}{\numberline {2.5}Plotting the Robot's Path}{4}}
\@writefile{toc}{\contentsline {section}{\numberline {3}Results}{4}}
\@writefile{toc}{\contentsline {subsection}{\numberline {3.1}Definition}{4}}
\@writefile{toc}{\contentsline {subsection}{\numberline {3.2}Test Set 1}{5}}
\@writefile{toc}{\contentsline {subsection}{\numberline {3.3}Test Set 2}{5}}
\@writefile{toc}{\contentsline {subsection}{\numberline {3.4}Our Data 1}{5}}
\@writefile{toc}{\contentsline {subsection}{\numberline {3.5}Our Data 2}{5}}
\@writefile{toc}{\contentsline {subsection}{\numberline {3.6}Our Data 3}{5}}
\@writefile{toc}{\contentsline {section}{\numberline {4}Discussion}{5}}
\@writefile{toc}{\contentsline {section}{\numberline {A}getFiles.m}{6}}
\newlabel{lst:getFiles}{{A}{6}}
\@writefile{lol}{\contentsline {lstlisting}{getFiles.m}{6}}
\@writefile{toc}{\contentsline {section}{\numberline {B}getFilesNonNorm.m}{6}}
\newlabel{lst:getFilesNonNorm}{{B}{6}}
\@writefile{lol}{\contentsline {lstlisting}{getFilesNonNorm.m}{6}}
\@writefile{toc}{\contentsline {section}{\numberline {C}genBG.m}{7}}
\newlabel{lst:genBG}{{C}{7}}
\@writefile{lol}{\contentsline {lstlisting}{genBG.m}{7}}
\@writefile{toc}{\contentsline {section}{\numberline {D}getThisPartyStarted.m}{7}}
\@writefile{lol}{\contentsline {lstlisting}{getThisPartyStarted.m}{7}}
\@writefile{toc}{\contentsline {section}{\numberline {E}normRGB.m}{10}}
\newlabel{lst:normRGB}{{E}{10}}
\@writefile{lol}{\contentsline {lstlisting}{normRGB.m}{10}}
\@writefile{toc}{\contentsline {section}{\numberline {F}dectDirection.m}{11}}
\@writefile{lol}{\contentsline {lstlisting}{dectDirection.m}{11}}
\@writefile{toc}{\contentsline {section}{\numberline {G}drawBoxes.m}{16}}
\@writefile{lol}{\contentsline {lstlisting}{drawBoxes.m}{16}}
\@writefile{toc}{\contentsline {section}{\numberline {H}getProps.m}{16}}
\newlabel{lst:getProps}{{H}{16}}
\@writefile{lol}{\contentsline {lstlisting}{getProps.m}{16}}
